{
  "meta": {
    "total": 2653,
    "per_page": 21,
    "current_page": 2,
    "last_page": 127,
    "first_page": 1,
    "first_page_url": "/?page=1",
    "last_page_url": "/?page=127",
    "next_page_url": "/?page=3",
    "previous_page_url": "/?page=1",
    "agg_development_size": 0,
    "agg_area_available": 0
  },
  "data": [
    {
      "id": 9517,
      "name": "Ascentia",
      "thumbnail": "https://altre-dev.s3.ap-south-1.amazonaws.com/data-request/9517/thumbnail/5JG6SoHJE_Ascentia.jpg",
      "lat": {
        "value": 19.0085,
        "direction": "N"
      },
      "long": {
        "value": 72.8202,
        "direction": "E"
      },
      "number_of_towers": 0,
      "total_development_size": 0.48,
      "quoted_rent_per_sqft": "370 - 375",
      "area_available": 480000,
      "full_address": "Central Mumbai, Mumbai"
    },
    {
      "id": 4317,
      "name": "The Crescent",
      "thumbnail": "https://altre-dev.s3.ap-south-1.amazonaws.com/property-images/4317/thumbnail/rperczbqh_1.png",
      "lat": {
        "value": 28.5247,
        "direction": "N"
      },
      "long": {
        "value": 77.1907,
        "direction": "E"
      },
      "number_of_towers": 1,
      "total_development_size": 0.05,
      "quoted_rent_per_sqft": "360 - 370",
      "area_available": 10,
      "full_address": "Saket, Delhi"
    },
    {
      "id": 4284,
      "name": "HT House",
      "thumbnail": "https://altre-dev.s3.ap-south-1.amazonaws.com/property-images/4284/thumbnail/30TVPq45Z_1.png",
      "lat": {
        "value": 28.6281,
        "direction": "N"
      },
      "long": {
        "value": 77.2233,
        "direction": "E"
      },
      "number_of_towers": 1,
      "total_development_size": 0.34,
      "quoted_rent_per_sqft": "340 - 350",
      "area_available": 49500,
      "full_address": "Connaught Place, Delhi"
    },
    {
      "id": 9074,
      "name": "Godrej BKC",
      "thumbnail": "https://altre-dev.s3.ap-south-1.amazonaws.com/property-images/9074/thumbnails/Godrej_BKC_Thumbnail.jpg",
      "lat": {
        "value": 19.0606,
        "direction": "N"
      },
      "long": {
        "value": 72.8652,
        "direction": "E"
      },
      "number_of_towers": 1,
      "total_development_size": 1.33,
      "quoted_rent_per_sqft": "340 - 350",
      "area_available": 9897,
      "full_address": "NEW CBD - BKC, Mumbai"
    },
    {
      "id": 8457,
      "name": "Select City  Walk Office Tower",
      "thumbnail": "https://altre-dev.s3.ap-south-1.amazonaws.com/property-images/8457/thumbnail/uVnCaTBKI_WhatsAppImage2024-10-24at12.42.00PM.jpeg",
      "lat": {
        "value": 28.5284,
        "direction": "N"
      },
      "long": {
        "value": 77.2192,
        "direction": "E"
      },
      "number_of_towers": 1,
      "total_development_size": 0.05,
      "quoted_rent_per_sqft": "345 - 350",
      "area_available": 6745,
      "full_address": "Saket, Delhi"
    },
    {
      "id": 9603,
      "name": "Archana Arcade",
      "thumbnail": "https://altre-dev.s3.ap-south-1.amazonaws.com/property-images/9603/thumbnail/a5JG8Sejp_1.jpeg",
      "lat": {
        "value": 28.5545,
        "direction": "N"
      },
      "long": {
        "value": 77.2311,
        "direction": "E"
      },
      "number_of_towers": 1,
      "total_development_size": 0.04,
      "quoted_rent_per_sqft": "340 - 350",
      "area_available": 34233,
      "full_address": "Nehru Place, Delhi"
    },
    {
      "id": 9951,
      "name": "Chandak Unicorn\r",
      "thumbnail": "https://altre-dev.s3.ap-south-1.amazonaws.com/data-request/13487/thumbnail/5QIBSpWs4_download1.jpeg",
      "lat": {
        "value": 19.1328,
        "direction": "N"
      },
      "long": {
        "value": 72.8339,
        "direction": "E"
      },
      "number_of_towers": 2,
      "total_development_size": 0.31,
      "quoted_rent_per_sqft": "340 - 350",
      "area_available": 9160,
      "full_address": "Western Suburbs 1, Mumbai"
    },
    {
      "id": 4290,
      "name": "Redfort Capital Tower",
      "thumbnail": "https://altre-dev.s3.ap-south-1.amazonaws.com/property-images/4290/thumbnail/IatHSj4ZI_1.png",
      "lat": {
        "value": 28.6318,
        "direction": "N"
      },
      "long": {
        "value": 77.2066,
        "direction": "E"
      },
      "number_of_towers": 2,
      "total_development_size": 0.35,
      "quoted_rent_per_sqft": "340 - 350",
      "area_available": 108700,
      "full_address": "Connaught Place, Delhi"
    },
    {
      "id": 9075,
      "name": "Laxmi Towers",
      "thumbnail": "https://altre-dev.s3.ap-south-1.amazonaws.com/data-request/9075/thumbnail/IGAfD4i2h_LaxmiTowers_01.jpg",
      "lat": {
        "value": 19.0641,
        "direction": "N"
      },
      "long": {
        "value": 72.8613,
        "direction": "E"
      },
      "number_of_towers": 3,
      "total_development_size": 0.36,
      "quoted_rent_per_sqft": "330 - 340",
      "area_available": 5000,
      "full_address": "NEW CBD - BKC, Mumbai"
    }
  ]
}
